{"refresh": 0, "items": 
	[
		{"number": "108", "name": "Omar Galaviz", "firstname": "Omar", "lastname": "Galaviz", "phone": "3045482519", "mobile": "3045482519", "email": "ogalaviz@aloglobal.com", "address": "calle44", "city": "Medellin", "state": "Antioquia", "zip": "", "comment": "", "presence": 1, "info": ""},
		{"number": "109", "name": "Camilo Piedrahita", "firstname": "Camilo", "lastname": "Piedrahita", "phone": "3195992827", "mobile": "3195992827", "email": "cpiedrahita@aloglobal.com", "address": "calle44", "city": "Medellin", "state": "Antioquia", "zip": "", "comment": "", "presence": 1, "info": ""},
		{"number": "144", "name": "Freddy Barraes", "firstname": "Freddy", "lastname": "Barraes", "phone": "3116480037", "mobile": "3116480037", "email": "fbarraes@aloglobal.com", "address": "calle44", "city": "Cali", "state": "Antioquia", "zip": "", "comment": "", "presence": 1, "info": ""},
		{"number": "148", "name": "Edgdaly Hernandez", "firstname": "Edgdaly", "lastname": "Hernandez", "phone": "3046316297", "mobile": "3046316297", "email": "ehernandez@aloglobal.com", "address": "calle44", "city": "Bogota", "state": "Cundinamarca", "zip": "", "comment": "", "presence": 1, "info": ""},
		{"number": "133", "name": "Ismael Hernandez", "firstname": "Ismael", "lastname": "Hernandez", "phone": "3013407160", "mobile": "3013407160", "email": "ihernandez@aloglobal.com", "address": "calle44", "city": "Bogota", "state": "Cundinamarca", "zip": "", "comment": "", "presence": 1, "info": ""},
		{"number": "132", "name": "Juliet Vidolpio", "firstname": "Juliet", "lastname": "Vidolpio", "phone": "584149393547", "mobile": "584149393547", "email": "jvidolpio@aloglobal.com", "address": "calle44", "city": "Caracas", "state": "D.C", "zip": "", "comment": "", "presence": 1, "info": ""},
		{"number": "130", "name": "Roberto Dopazo", "firstname": "Roberto", "lastname": "Dopazo", "phone": "", "mobile": "", "email": "rdopazo@aloglobal.com", "address": "calle44", "city": "Guarico", "state": "San Juan", "zip": "", "comment": "", "presence": 1, "info": ""},
		{"number": "153", "name": "Alexis Serbian", "firstname": "Alexis", "lastname": "Serbian", "phone": "", "mobile": "", "email": "aserbian@aloglobal.com", "address": "calle44", "city": "Valencia", "state": "", "zip": "", "comment": "", "presence": 1, "info": ""},						
		{"number": "151", "name": "Yurany Barrera", "firstname": "Yurany", "lastname": "Barrera", "phone": "", "mobile": "", "email": "ybarrera@aloglobal.com ", "address": "calle44", "city": "Bogota", "state": "Cundinamarca", "zip": "", "comment": "", "presence": 1, "info": ""},								
		{"number": "154", "name": "Norys Cova", "firstname": "Norys", "lastname": "Cova", "phone": "", "mobile": "", "email": "ncova@aloglobal.com ", "address": "calle44", "city": "Caracas", "state": "D.C", "zip": "", "comment": "", "presence": 1, "info": ""},								
		{"number": "114", "name": "Diana Leguizamon", "firstname": "Diana", "lastname": "Leguizamon", "phone": "", "mobile": "", "email": "dleguizamon@aloglobal.com ", "address": "calle44", "city": "Bogota", "state": "Cundinamarca", "zip": "", "comment": "", "presence": 1, "info": ""},							
		{"number": "127", "name": "Mario Hermida", "firstname": "Mario", "lastname": "Hermida", "phone": "", "mobile": "", "email": "mhermida@aloglobal.com ", "address": "calle44", "city": "Bogota", "state": "Cundinamarca", "zip": "", "comment": "", "presence": 1, "info": ""},							
		{"number": "111", "name": "Luis Vargas", "firstname": "Luis", "lastname": "Vargas", "phone": "", "mobile": "", "email": "lvargas@aloglobal.com ", "address": "calle44", "city": "Cali", "state": "", "zip": "", "comment": "", "presence": 1, "info": ""},
		{"number": "120", "name": "Carlos Gomez", "firstname": "Carlos", "lastname": "Gomez", "phone": "", "mobile": "", "email": "crgomez@aloglobal.com ", "address": "calle44", "city": "Medellin", "state": "Antioquia", "zip": "", "comment": "", "presence": 1, "info": ""},																					
		{"number": "115", "name": "Carolina Cuervo", "firstname": "Carolina", "lastname": "Cuervo", "phone": "", "mobile": "", "email": "ccuervo@aloglobal.com ", "address": "calle44", "city": "Bogota", "state": "Cundinamarca", "zip": "", "comment": "", "presence": 1, "info": ""},																							
		{"number": "103", "name": "Lina Betancur", "firstname": "Lina", "lastname": "Betancur", "phone": "", "mobile": "", "email": "lina@aloglobal.com ", "address": "calle44", "city": "Bogota", "state": "Cundinamarca", "zip": "", "comment": "", "presence": 1, "info": ""},																							
		{"number": "106", "name": "David Benarroch", "firstname": "David", "lastname": "Benarroch", "phone": "", "mobile": "", "email": "david@aloglobal.com ", "address": "calle44", "city": "Bogota", "state": "Cundinamarca", "zip": "", "comment": "", "presence": 1, "info": ""},
		{"number": "105", "name": "Diana Diaz", "firstname": "Diana", "lastname": "Diaz", "phone": "", "mobile": "", "email": "ddiaz@aloglobal.com ", "address": "calle44", "city": "Medellin", "state": "Antioquia", "zip": "", "comment": "", "presence": 1, "info": ""},
		{"number": "114", "name": "Diana Leguizamon", "firstname": "Diana", "lastname": "Leguizamon", "phone": "", "mobile": "", "email": "dleguizamon@aloglobal.com ", "address": "calle44", "city": "Bogota", "state": "Cundinamarca", "zip": "", "comment": "", "presence": 1, "info": ""},																																																																												
		{"number": "110", "name": "María Ávila", "firstname": "Maria Luisa", "lastname": "Avila", "phone": "", "mobile": "", "email": "mavila@aloglobal.com ", "address": "calle44", "city": "Barquisimeto", "state": "Lara", "zip": "", "comment": "", "presence": 1, "info": ""},																																																																											
		{"number": "107", "name": "Luis Morales", "firstname": "Luis Carlos", "lastname": "Morales", "phone": "", "mobile": "", "email": "lmorales@aloglobal.com ", "address": "calle44", "city": "Barquisimeto", "state": "Lara", "zip": "", "comment": "", "presence": 1, "info": ""},																																																																													
		{"number": "126", "name": "Natacha Ramirez", "firstname": "Natacha", "lastname": "Ramirez", "phone": "", "mobile": "", "email": "nramirez@aloglobal.com", "address": "calle44", "city": "Caracas", "state": "D.C", "zip": "", "comment": "", "presence": 1, "info": ""},
		{"number": "146", "name": "Evelyn Gomez", "firstname": "Evelyn", "lastname": "Gomez", "phone": "", "mobile": "", "email": "egomez@aloglobal.com", "address": "calle44", "city": "Caracas", "state": "D.C", "zip": "", "comment": "", "presence": 1, "info": ""}																																																																																																																																																																	
	]
}
